Module: multipass.mod. Path: ./testmodules.base/multipass.mod
Module: ./getopts.mod. Path: /home/testuser/boil/test/runtimetests/testmodules.base/getopts.mod
Module: ./getopts.mod. Path: /home/testuser/boil/test/runtimetests/testmodules.base/getopts.mod
