Module: include.mod. Path: ./testmodules.base/include.mod
Module: getopts.mod. Path: ./testmodules.base/getopts.mod
Module: ../testotherdir/path.mod. Path: /home/testuser/boil/test/runtimetests/testotherdir/path.mod
