Module: include-stop.mod. Path: ./testmodules.filter/include-stop.mod
Module: ./submodule-stop.mod. Path: /home/testuser/boil/test/runtimetests/testmodules.filter/submodule-stop.mod
Module: ./submodule-start.mod. Path: /home/testuser/boil/test/runtimetests/testmodules.filter/submodule-start.mod
