Module: include.mod. Path: ./testmodules.filter/include.mod
Module: ./default.mod. Path: /home/testuser/boil/test/runtimetests/testmodules.filter/default.mod
Module: ./default.mod. Path: /home/testuser/boil/test/runtimetests/testmodules.filter/default.mod
Module: ./default.mod. Path: /home/testuser/boil/test/runtimetests/testmodules.filter/default.mod
Module: ./default.mod. Path: /home/testuser/boil/test/runtimetests/testmodules.filter/default.mod
