Module: include-invert.mod. Path: ./testmodules.filter/include-invert.mod
Module: ./default.mod. Path: /home/testuser/boil/test/runtimetests/testmodules.filter/default.mod
Module: ./default.mod. Path: /home/testuser/boil/test/runtimetests/testmodules.filter/default.mod
Module: ./default.mod. Path: /home/testuser/boil/test/runtimetests/testmodules.filter/default.mod
Module: ./default.mod. Path: /home/testuser/boil/test/runtimetests/testmodules.filter/default.mod
