Module: default.mod. Path: ./testmodules.base/default.mod
Module: circular_1file.mod. Path: ./testmodules.base/circular_1file.mod
Module: circular_1file.mod. Path: ./testmodules.base/circular_1file.mod
Circular module inclusion detected! Ignoring: ./testmodules.base/circular_1file.mod
