Module: default.mod. Path: ./testmodules.base/default.mod
Module: circular_3files_start.mod. Path: ./testmodules.base/circular_3files_start.mod
Module: circular_3files_mid.mod. Path: ./testmodules.base/circular_3files_mid.mod
Module: circular_3files_end.mod. Path: ./testmodules.base/circular_3files_end.mod
Module: circular_3files_start.mod. Path: ./testmodules.base/circular_3files_start.mod
Circular module inclusion detected! Ignoring: ./testmodules.base/circular_3files_start.mod
Module: circular_3files_mid.mod. Path: ./testmodules.base/circular_3files_mid.mod
Omitting already included module: ./testmodules.base/circular_3files_mid.mod
Module: circular_3files_end.mod. Path: ./testmodules.base/circular_3files_end.mod
Omitting already included module: ./testmodules.base/circular_3files_end.mod
