Module: default.mod. Path: ./testmodules.base/default.mod
Module: ./testotherdir/path.mod. Path: /home/testuser/boil/test/runtimetests/testotherdir/path.mod
Module: getopts.mod. Path: ./testmodules.base/getopts.mod
