Module: submodule.mod. Path: ./testmodules.map/submodule.mod
Module: include.mod. Path: ./testmodules.map/include.mod
Module: ./default.mod. Path: /home/testuser/boil/test/runtimetests/testmodules.map/default.mod
Error: Missing '>'
REPLACE failed. Cannot parse:
$<key
Error: Missing '>'
REPLACE failed. Cannot parse:
begin $<key
Error: Missing '>'
REPLACE failed. Cannot parse:
$<key end
REPLACE failed. Cannot parse:
$<>
REPLACE failed. Cannot parse:
begin $<>
REPLACE failed. Cannot parse:
$<> end
