Module: insertbase.mod. Path: ./testmodules.map/insertbase.mod
Module: insert_a.mod. Path: ./testmodules.map/insert_a.mod
Module: insert_b.mod. Path: ./testmodules.map/insert_b.mod
Error: Missing '>'
Cannot parse:

Cannot parse:
 are $<missing>

Module: insert_a.mod. Path: ./testmodules.map/insert_a.mod
Module: insert_b.mod. Path: ./testmodules.map/insert_b.mod
Error: Missing '>'
Cannot parse:

Cannot parse:
 are $<missing>

INSERT failed. Cannot parse:
$<nokey>
