Module: default.mod. Path: ./testmodules.base/first_prefix_dir/default.mod
Module: getopts.mod. Path: ./testmodules.base/first_prefix_dir/getopts.mod
Module: include.mod. Path: ./testmodules.base/first_prefix_dir/include.mod
Module: getopts.mod. Path: ./testmodules.base/first_prefix_dir/getopts.mod
Omitting already included module: ./testmodules.base/first_prefix_dir/getopts.mod
Module: ../../testotherdir/path.mod. Path: /home/testuser/boil/test/runtimetests/testotherdir/path.mod
