Module: default.mod. Path: ./testmodules.base/first_prefix_dir/default.mod
Module: circular_2files_start.mod. Path: ./testmodules.base/first_prefix_dir/circular_2files_start.mod
Module: circular_2files_end.mod. Path: ./testmodules.base/first_prefix_dir/circular_2files_end.mod
Module: circular_2files_start.mod. Path: ./testmodules.base/first_prefix_dir/circular_2files_start.mod
Circular module inclusion detected! Ignoring: ./testmodules.base/first_prefix_dir/circular_2files_start.mod
Module: circular_2files_end.mod. Path: ./testmodules.base/first_prefix_dir/circular_2files_end.mod
Omitting already included module: ./testmodules.base/first_prefix_dir/circular_2files_end.mod
