Module: multipass.mod. Path: ./testmodules.base/first_prefix_dir/multipass.mod
Module: ./getopts.mod. Path: /home/testuser/boil/test/runtimetests/testmodules.base/first_prefix_dir/getopts.mod
Module: ./getopts.mod. Path: /home/testuser/boil/test/runtimetests/testmodules.base/first_prefix_dir/getopts.mod
